,alimentacao e bebidas,habitacao,artigos de residencia,vestuario,transportes,saude e cuidados pessoais,despesas pessoais,educacao,comunicacao,indice geral
jan/15,1.48,2.42,-0.28,-0.69,1.83,0.32,1.68,0.31,0.15,1.24
fev/15,0.81,1.22,0.87,-0.6,2.2,0.6,0.86,5.88,-0.02,1.22
mar/15,1.17,5.29,0.35,0.59,0.46,0.69,0.36,0.75,-1.16,1.32
abr/15,0.97,0.93,0.66,0.91,0.11,1.32,0.51,0.21,0.31,0.71
mai/15,1.37,1.22,0.36,0.61,-0.29,1.1,0.74,0.06,0.17,0.74
jun/15,0.63,0.86,0.72,0.58,0.7,0.91,1.63,0.2,0.34,0.79
jul/15,0.65,1.52,0.86,-0.31,0.15,0.84,0.61,0,0.3,0.62
ago/15,-0.01,0.29,0.37,0.2,-0.27,0.62,0.75,0.82,0.14,0.22
set/15,0.24,1.3,0.19,0.5,0.71,0.55,0.33,0.25,0.01,0.54
out/15,0.77,0.75,0.39,0.67,1.72,0.55,0.57,0.1,0.39,0.82
nov/15,1.83,0.76,0.31,0.79,1.08,0.64,0.52,0.22,1.03,1.01
dez/15,1.5,0.49,0.46,1.15,1.36,0.7,0.57,0.22,0.43,0.96
jan/16,2.28,0.81,0.45,-0.24,1.77,0.81,1.19,0.31,0.22,1.27
fev/16,1.06,-0.15,1.01,0.24,0.62,0.94,0.77,5.9,0.66,0.9
mar/16,1.24,-0.64,0.7,0.69,0.16,0.78,0.6,0.63,-1.65,0.43
abr/16,1.09,-0.38,0.26,0.4,0.03,2.33,0.23,0.2,1.47,0.61
mai/16,0.78,1.79,0.63,0.91,-0.58,1.62,1.35,0.16,0.01,0.78
jun/16,0.71,0.63,0.26,0.32,-0.53,0.83,0.35,0.11,0.04,0.35
jul/16,1.32,-0.29,0.53,-0.38,0.4,0.61,0.7,0.04,0.02,0.52
ago/16,0.3,0.3,0.36,0.15,0.27,0.8,0.96,0.99,-0.02,0.44
set/16,-0.29,0.63,-0.23,0.43,-0.1,0.33,0.1,0.18,0.18,0.08
out/16,-0.05,0.42,-0.13,0.45,0.75,0.43,0.01,0.02,0.07,0.26
nov/16,-0.2,0.3,-0.16,0.2,0.28,0.57,0.47,0.06,0.27,0.18
dez/16,0.08,-0.59,-0.31,0.32,1.11,0.49,1.01,0.07,0.02,0.3
jan/17,0.35,0.17,-0.1,-0.36,0.77,0.55,0.45,0.29,0.63,0.38
fev/17,-0.45,0.24,0.18,-0.13,0.24,0.65,0.31,5.04,0.66,0.33
mar/17,0.34,1.18,-0.29,-0.12,-0.86,0.69,0.52,0.95,-0.63,0.25
abr/17,0.58,-1.09,-0.28,0.48,-0.06,1,0.09,0.03,0.55,0.14
mai/17,-0.35,2.14,-0.23,0.98,-0.42,0.62,0.23,0.08,0.09,0.31
jun/17,-0.5,-0.77,-0.07,0.21,-0.52,0.46,0.33,0.08,0.09,-0.23
jul/17,-0.47,1.64,-0.23,-0.42,0.34,0.37,0.36,-0.02,-0.02,0.24
ago/17,-1.07,0.57,0.2,0.29,1.53,0.41,0.29,0.24,-0.56,0.19
set/17,-0.41,-0.12,0.13,0.28,0.79,0.32,0.56,0.04,0.5,0.16
out/17,-0.05,1.33,-0.39,0.71,0.49,0.52,0.32,0.06,0.4,0.42
nov/17,-0.38,1.27,-0.45,0.1,0.52,0.34,0.42,0.03,0.15,0.28
dez/17,0.54,-0.4,0.03,0.84,1.23,0.4,0.42,0.15,-0.11,0.44
jan/18,0.74,-0.85,0.14,-0.98,1.1,0.42,0.22,0.22,0.11,0.29
fev/18,-0.33,0.22,0.03,-0.38,0.74,0.38,0.17,3.89,0.05,0.32
mar/18,0.07,0.19,0.08,0.33,-0.25,0.48,0.05,0.28,-0.33,0.09
abr/18,0.09,0.17,0.22,0.62,0,0.91,0.12,0.08,0.07,0.22
mai/18,0.32,0.83,-0.06,0.58,0.4,0.57,0.11,0.06,0.16,0.4
jun/18,2.03,2.48,0.34,-0.16,1.58,0.37,0.33,0.02,0,1.26
jul/18,-0.12,1.54,0.47,-0.6,0.49,0.07,0.31,-0.08,0.08,0.33
ago/18,-0.34,0.44,0.56,0.19,-1.22,0.53,0.36,0.25,0.03,-0.09
set/18,0.1,0.7,0.11,-0.02,1.69,0.28,0.38,0.24,-0.07,0.48
out/18,0.59,0.14,0.76,0.33,0.92,0.27,0.25,0.04,0.02,0.45
nov/18,0.39,-0.71,0.48,-0.43,-0.74,-0.71,0.36,0.04,-0.07,-0.21
dez/18,0.44,-0.15,0.57,1.14,-0.54,0.32,0.29,0.21,0.01,0.15
jan/19,0.9,0.24,0.32,-1.15,0.02,0.26,0.61,0.12,0.04,0.32
fev/19,0.78,0.38,0.2,-0.33,-0.34,0.49,0.18,3.53,0,0.43
mar/19,1.37,0.25,0.27,0.45,1.44,0.42,0.16,0.32,-0.22,0.75
abr/19,0.63,0.24,-0.24,0.18,0.94,1.51,0.17,0.09,0.03,0.57
mai/19,-0.56,0.98,-0.1,0.34,0.07,0.59,0.16,-0.04,-0.03,0.13
jun/19,-0.25,0.07,0.02,0.3,-0.31,0.64,0.15,0.14,-0.02,0.01
jul/19,0.01,1.2,0.29,-0.52,-0.17,-0.2,0.44,0.04,0.57,0.19
ago/19,-0.35,1.19,0.56,0.23,-0.39,-0.03,0.31,0.16,0.09,0.11
set/19,-0.43,0.02,-0.76,0.27,0,0.58,0.04,0.04,-0.01,-0.04
out/19,0.05,-0.61,-0.09,0.63,0.45,0.45,0.2,0.03,-0.01,0.1
nov/19,0.72,0.71,-0.36,0.35,0.3,0.21,1.24,0.08,-0.02,0.51
dez/19,3.38,-0.82,-0.48,0,1.54,0.42,0.92,0.2,0.66,1.15
jan/20,0.39,0.55,-0.07,-0.48,0.32,-0.32,0.35,0.16,0.12,0.21
fev/20,0.11,-0.39,-0.08,-0.73,-0.23,0.73,0.31,3.7,0.21,0.25
mar/20,1.13,0.13,-1.08,0.21,-0.9,0.21,-0.23,0.59,0.04,0.07
abr/20,1.79,-0.1,-1.37,0.1,-2.66,-0.22,-0.14,0,0.2,-0.31
mai/20,0.24,-0.25,0.58,-0.58,-1.9,-0.1,-0.04,0.02,0.24,-0.38
jun/20,0.38,0.04,1.3,-0.46,0.31,0.35,-0.05,0.05,0.75,0.26
jul/20,0.01,0.8,0.9,-0.52,0.78,0.44,-0.11,-0.12,0.51,0.36
